HexDisplay/simulation/qsim/HextoDisplay4.msim.vcd
$comment
	File created using the following command:
		vcd file HextoDisplay4.msim.vcd -direction
$end
$date
	Thu Dec 12 12:10:32 2024
$end
$version
	ModelSim Version 2020.1
$end
$timescale
	1ps
$end

$scope module hextodisplay4_vhd_vec_tst $end
$var wire 1 ! Display [27] $end
$var wire 1 " Display [26] $end
$var wire 1 # Display [25] $end
$var wire 1 $ Display [24] $end
$var wire 1 % Display [23] $end
$var wire 1 & Display [22] $end
$var wire 1 ' Display [21] $end
$var wire 1 ( Display [20] $end
$var wire 1 ) Display [19] $end
$var wire 1 * Display [18] $end
$var wire 1 + Display [17] $end
$var wire 1 , Display [16] $end
$var wire 1 - Display [15] $end
$var wire 1 . Display [14] $end
$var wire 1 / Display [13] $end
$var wire 1 0 Display [12] $end
$var wire 1 1 Display [11] $end
$var wire 1 2 Display [10] $end
$var wire 1 3 Display [9] $end
$var wire 1 4 Display [8] $end
$var wire 1 5 Display [7] $end
$var wire 1 6 Display [6] $end
$var wire 1 7 Display [5] $end
$var wire 1 8 Display [4] $end
$var wire 1 9 Display [3] $end
$var wire 1 : Display [2] $end
$var wire 1 ; Display [1] $end
$var wire 1 < Display [0] $end
$var wire 1 = Hexa [15] $end
$var wire 1 > Hexa [14] $end
$var wire 1 ? Hexa [13] $end
$var wire 1 @ Hexa [12] $end
$var wire 1 A Hexa [11] $end
$var wire 1 B Hexa [10] $end
$var wire 1 C Hexa [9] $end
$var wire 1 D Hexa [8] $end
$var wire 1 E Hexa [7] $end
$var wire 1 F Hexa [6] $end
$var wire 1 G Hexa [5] $end
$var wire 1 H Hexa [4] $end
$var wire 1 I Hexa [3] $end
$var wire 1 J Hexa [2] $end
$var wire 1 K Hexa [1] $end
$var wire 1 L Hexa [0] $end

$scope module i1 $end
$var wire 1 M gnd $end
$var wire 1 N vcc $end
$var wire 1 O unknown $end
$var wire 1 P devoe $end
$var wire 1 Q devclrn $end
$var wire 1 R devpor $end
$var wire 1 S ww_devoe $end
$var wire 1 T ww_devclrn $end
$var wire 1 U ww_devpor $end
$var wire 1 V ww_Hexa [15] $end
$var wire 1 W ww_Hexa [14] $end
$var wire 1 X ww_Hexa [13] $end
$var wire 1 Y ww_Hexa [12] $end
$var wire 1 Z ww_Hexa [11] $end
$var wire 1 [ ww_Hexa [10] $end
$var wire 1 \ ww_Hexa [9] $end
$var wire 1 ] ww_Hexa [8] $end
$var wire 1 ^ ww_Hexa [7] $end
$var wire 1 _ ww_Hexa [6] $end
$var wire 1 ` ww_Hexa [5] $end
$var wire 1 a ww_Hexa [4] $end
$var wire 1 b ww_Hexa [3] $end
$var wire 1 c ww_Hexa [2] $end
$var wire 1 d ww_Hexa [1] $end
$var wire 1 e ww_Hexa [0] $end
$var wire 1 f ww_Display [27] $end
$var wire 1 g ww_Display [26] $end
$var wire 1 h ww_Display [25] $end
$var wire 1 i ww_Display [24] $end
$var wire 1 j ww_Display [23] $end
$var wire 1 k ww_Display [22] $end
$var wire 1 l ww_Display [21] $end
$var wire 1 m ww_Display [20] $end
$var wire 1 n ww_Display [19] $end
$var wire 1 o ww_Display [18] $end
$var wire 1 p ww_Display [17] $end
$var wire 1 q ww_Display [16] $end
$var wire 1 r ww_Display [15] $end
$var wire 1 s ww_Display [14] $end
$var wire 1 t ww_Display [13] $end
$var wire 1 u ww_Display [12] $end
$var wire 1 v ww_Display [11] $end
$var wire 1 w ww_Display [10] $end
$var wire 1 x ww_Display [9] $end
$var wire 1 y ww_Display [8] $end
$var wire 1 z ww_Display [7] $end
$var wire 1 { ww_Display [6] $end
$var wire 1 | ww_Display [5] $end
$var wire 1 } ww_Display [4] $end
$var wire 1 ~ ww_Display [3] $end
$var wire 1 !! ww_Display [2] $end
$var wire 1 "! ww_Display [1] $end
$var wire 1 #! ww_Display [0] $end
$var wire 1 $! \Display[0]~output_o\ $end
$var wire 1 %! \Display[1]~output_o\ $end
$var wire 1 &! \Display[2]~output_o\ $end
$var wire 1 '! \Display[3]~output_o\ $end
$var wire 1 (! \Display[4]~output_o\ $end
$var wire 1 )! \Display[5]~output_o\ $end
$var wire 1 *! \Display[6]~output_o\ $end
$var wire 1 +! \Display[7]~output_o\ $end
$var wire 1 ,! \Display[8]~output_o\ $end
$var wire 1 -! \Display[9]~output_o\ $end
$var wire 1 .! \Display[10]~output_o\ $end
$var wire 1 /! \Display[11]~output_o\ $end
$var wire 1 0! \Display[12]~output_o\ $end
$var wire 1 1! \Display[13]~output_o\ $end
$var wire 1 2! \Display[14]~output_o\ $end
$var wire 1 3! \Display[15]~output_o\ $end
$var wire 1 4! \Display[16]~output_o\ $end
$var wire 1 5! \Display[17]~output_o\ $end
$var wire 1 6! \Display[18]~output_o\ $end
$var wire 1 7! \Display[19]~output_o\ $end
$var wire 1 8! \Display[20]~output_o\ $end
$var wire 1 9! \Display[21]~output_o\ $end
$var wire 1 :! \Display[22]~output_o\ $end
$var wire 1 ;! \Display[23]~output_o\ $end
$var wire 1 <! \Display[24]~output_o\ $end
$var wire 1 =! \Display[25]~output_o\ $end
$var wire 1 >! \Display[26]~output_o\ $end
$var wire 1 ?! \Display[27]~output_o\ $end
$var wire 1 @! \Hexa[2]~input_o\ $end
$var wire 1 A! \Hexa[3]~input_o\ $end
$var wire 1 B! \Hexa[1]~input_o\ $end
$var wire 1 C! \Hexa[0]~input_o\ $end
$var wire 1 D! \i3|Mux6~0_combout\ $end
$var wire 1 E! \i3|Mux5~0_combout\ $end
$var wire 1 F! \i3|Mux4~0_combout\ $end
$var wire 1 G! \i3|Mux3~0_combout\ $end
$var wire 1 H! \i3|Mux2~0_combout\ $end
$var wire 1 I! \i3|Mux1~0_combout\ $end
$var wire 1 J! \i3|Mux0~0_combout\ $end
$var wire 1 K! \Hexa[6]~input_o\ $end
$var wire 1 L! \Hexa[7]~input_o\ $end
$var wire 1 M! \Hexa[5]~input_o\ $end
$var wire 1 N! \Hexa[4]~input_o\ $end
$var wire 1 O! \i2|Mux6~0_combout\ $end
$var wire 1 P! \i2|Mux5~0_combout\ $end
$var wire 1 Q! \i2|Mux4~0_combout\ $end
$var wire 1 R! \i2|Mux3~0_combout\ $end
$var wire 1 S! \i2|Mux2~0_combout\ $end
$var wire 1 T! \i2|Mux1~0_combout\ $end
$var wire 1 U! \i2|Mux0~0_combout\ $end
$var wire 1 V! \Hexa[8]~input_o\ $end
$var wire 1 W! \Hexa[9]~input_o\ $end
$var wire 1 X! \Hexa[11]~input_o\ $end
$var wire 1 Y! \Hexa[10]~input_o\ $end
$var wire 1 Z! \i1|Mux6~0_combout\ $end
$var wire 1 [! \i1|Mux5~0_combout\ $end
$var wire 1 \! \i1|Mux4~0_combout\ $end
$var wire 1 ]! \i1|Mux3~0_combout\ $end
$var wire 1 ^! \i1|Mux2~0_combout\ $end
$var wire 1 _! \i1|Mux1~0_combout\ $end
$var wire 1 `! \i1|Mux0~0_combout\ $end
$var wire 1 a! \Hexa[13]~input_o\ $end
$var wire 1 b! \Hexa[12]~input_o\ $end
$var wire 1 c! \Hexa[15]~input_o\ $end
$var wire 1 d! \Hexa[14]~input_o\ $end
$var wire 1 e! \i0|Mux6~0_combout\ $end
$var wire 1 f! \i0|Mux5~0_combout\ $end
$var wire 1 g! \i0|Mux4~0_combout\ $end
$var wire 1 h! \i0|Mux3~0_combout\ $end
$var wire 1 i! \i0|Mux2~0_combout\ $end
$var wire 1 j! \i0|Mux1~0_combout\ $end
$var wire 1 k! \i0|Mux0~0_combout\ $end
$var wire 1 l! \i0|ALT_INV_Mux0~0_combout\ $end
$var wire 1 m! \i1|ALT_INV_Mux0~0_combout\ $end
$var wire 1 n! \i2|ALT_INV_Mux0~0_combout\ $end
$var wire 1 o! \i3|ALT_INV_Mux0~0_combout\ $end
$upscope $end
$upscope $end
$enddefinitions $end
#0
$dumpvars
0M
1N
xO
1P
1Q
1R
1S
1T
1U
0$!
0%!
0&!
0'!
0(!
0)!
1*!
0+!
0,!
0-!
0.!
0/!
00!
11!
02!
03!
04!
05!
06!
07!
18!
09!
0:!
0;!
0<!
0=!
0>!
1?!
0@!
0A!
0B!
0C!
0D!
0E!
0F!
0G!
0H!
0I!
0J!
0K!
0L!
0M!
0N!
0O!
0P!
0Q!
0R!
0S!
0T!
0U!
0V!
0W!
0X!
0Y!
0Z!
0[!
0\!
0]!
0^!
0_!
0`!
0a!
0b!
0c!
0d!
0e!
0f!
0g!
0h!
0i!
0j!
0k!
1l!
1m!
1n!
1o!
0=
0>
0?
0@
0A
0B
0C
0D
0E
0F
0G
0H
0I
0J
0K
0L
0V
0W
0X
0Y
0Z
0[
0\
0]
0^
0_
0`
0a
0b
0c
0d
0e
1f
0g
0h
0i
0j
0k
0l
1m
0n
0o
0p
0q
0r
0s
1t
0u
0v
0w
0x
0y
0z
1{
0|
0}
0~
0!!
0"!
0#!
1!
0"
0#
0$
0%
0&
0'
1(
0)
0*
0+
0,
0-
0.
1/
00
01
02
03
04
05
16
07
08
09
0:
0;
0<
$end
#500
1L
1e
1C!
1D!
1G!
1H!
1I!
1)!
1(!
1'!
1$!
1|
1}
1~
1#!
1<
19
18
17
#1000
0L
1K
0e
1d
1B!
0C!
0D!
1F!
0G!
0H!
1J!
0o!
0(!
0'!
1&!
0$!
0*!
0}
0~
1!!
0#!
0{
0<
1:
09
08
06
#1500
1L
1e
1C!
0F!
1H!
1(!
0&!
1}
0!!
0:
18
#2000
0L
0K
1J
0e
0d
1c
1@!
0B!
0C!
1D!
1G!
0I!
0)!
1'!
1$!
0|
1~
1#!
1<
19
07
#2500
1L
1e
1C!
0D!
1E!
0G!
0'!
1%!
0$!
0~
1"!
0#!
0<
1;
09
#3000
0L
1K
0e
1d
1B!
0C!
0H!
0(!
0}
08
#3500
1L
1e
1C!
0E!
1G!
1H!
1I!
0J!
1o!
1)!
1(!
1'!
0%!
1*!
1|
1}
1~
0"!
1{
0;
19
18
17
16
#4000
0L
0K
0J
1I
0e
0d
0c
1b
1A!
0@!
0B!
0C!
0G!
0H!
0I!
1J!
0o!
0)!
0(!
0'!
0*!
0|
0}
0~
0{
09
08
07
06
#4500
1L
1e
1C!
1H!
1(!
1}
18
#5000
0L
1K
0e
1d
1B!
0C!
1G!
0H!
0(!
1'!
0}
1~
19
08
#5500
1L
1e
1C!
1D!
1E!
0G!
0'!
1%!
1$!
0~
1"!
1#!
1<
1;
09
#6000
0L
0K
1J
0e
0d
1c
1@!
0B!
0C!
0D!
1F!
0J!
1o!
1&!
0$!
1*!
1!!
0#!
1{
0<
1:
16
#6500
1L
1e
1C!
1D!
0E!
0F!
1I!
1J!
0o!
1)!
0&!
0%!
1$!
0*!
1|
0!!
0"!
1#!
0{
1<
0;
0:
17
06
#7000
0L
1K
0e
1d
1B!
0C!
0D!
1E!
1F!
0I!
0)!
1&!
1%!
0$!
0|
1!!
1"!
0#!
0<
1;
1:
07
#7500
1L
1e
1C!
1G!
1'!
1~
19
#8000
0L
0K
0J
0I
1H
0e
0d
0c
0b
1a
1N!
0A!
0@!
0B!
0C!
0E!
0F!
0G!
0J!
1O!
1R!
1S!
1T!
1o!
10!
1/!
1.!
1+!
0'!
0&!
0%!
1*!
1u
1v
1w
1z
0~
0!!
0"!
1{
0;
0:
09
15
12
11
10
16
#8500
1L
1e
1C!
1D!
1G!
1H!
1I!
1)!
1(!
1'!
1$!
1|
1}
1~
1#!
1<
19
18
17
#9000
0L
1K
0e
1d
1B!
0C!
0D!
1F!
0G!
0H!
1J!
0o!
0(!
0'!
1&!
0$!
0*!
0}
0~
1!!
0#!
0{
0<
1:
09
08
06
#9500
1L
1e
1C!
0F!
1H!
1(!
0&!
1}
0!!
0:
18
